{
  "watchForChanges": true,
  "hud": {
    "distance": 60,
    "x": 30.0,
    "y": 7.0,
    "scale": 0.5,
    "hideDelay": 20,
    "anchorPoint": "TOP_CENTER",
    "showEntity": true,
    "showBar": true,
    "showSkin": true
  },
  "bar": {
    "damageNumberType": "LAST",
    "friendColor": 16711935,
    "friendColorSecondary": 8388863,
    "foeColor": -16776961,
    "foeColorSecondary": -2147483393
  },
  "inWorld": {
    "mode": "NONE",
    "distance": 60.0,
    "onlyWhenLookingAt": false,
    "onlyWhenHurt": false
  },
  "particle": {
    "show": false,
    "damageColor": 16711680,
    "healColor": 65280
  }
}